67.jpg 1 3
18.jpg 4 6
81.jpg 7 7
31.jpg 8 10
4.jpg 11 13
44.jpg 14 16
42.jpg 17 19
11.jpg 20 22
36.jpg 23 25
32.jpg 26 28
91.jpg 29 29
39.jpg 30 32
72.jpg 33 35
19.jpg 36 38
8.jpg 39 41
29.jpg 42 44
82.jpg 45 45
100.jpg 46 45
12.jpg 46 48
89.jpg 49 49
97.jpg 50 50
90.jpg 51 51
49.jpg 52 54
43.jpg 55 57
3.jpg 58 60
45.jpg 61 63
20.jpg 64 66
25.jpg 67 69
7.jpg 70 72
2.jpg 73 75
65.jpg 76 78
84.jpg 79 79
52.jpg 80 82
34.jpg 83 85
50.jpg 86 88
5.jpg 89 91
64.jpg 92 94
15.jpg 95 97
76.jpg 98 98
88.jpg 99 99
69.jpg 100 101
87.jpg 102 102
70.jpg 103 104
10.jpg 105 107
41.jpg 108 110
1.jpg 111 113
62.jpg 114 116
35.jpg 117 119
60.jpg 120 122
74.jpg 123 122
6.jpg 123 125
13.jpg 126 128
26.jpg 129 131
99.jpg 132 132
85.jpg 133 133
37.jpg 134 136
33.jpg 137 139
96.jpg 140 139
73.jpg 140 142
57.jpg 143 145
51.jpg 146 148
30.jpg 149 151
92.jpg 152 152
14.jpg 153 155
23.jpg 156 158
58.jpg 159 161
55.jpg 162 164
95.jpg 165 164
80.jpg 165 165
28.jpg 166 168
98.jpg 169 168
79.jpg 169 169
59.jpg 170 172
63.jpg 173 175
71.jpg 176 178
38.jpg 179 181
22.jpg 182 184
47.jpg 185 187
61.jpg 188 190
9.jpg 191 193
46.jpg 194 196
66.jpg 197 199
77.jpg 200 200
21.jpg 201 203
54.jpg 204 206
68.jpg 207 209
75.jpg 210 209
40.jpg 210 212
83.jpg 213 213
16.jpg 214 216
94.jpg 217 218
56.jpg 219 221
78.jpg 222 221
27.jpg 222 224
86.jpg 225 225
93.jpg 226 226
53.jpg 227 229
48.jpg 230 232
17.jpg 233 235
24.jpg 236 238
